<svg version="1.1" xmlns="http://www.w3.org/2000/svg" xmlns:xlink="http://www.w3.org/1999/xlink" x="0px" y="0px"
	 viewBox="0 0 474.825 474.825" style="enable-background:new 0 0 474.825 474.825;"
	 xml:space="preserve" width="35px" height="40px">
<g>
	<path d="M441.859,136.431c0-38.938-31.57-70.497-70.498-70.497h-16.438C344.146,27.881,296.398,0,237.415,0
		c-58.981,0-106.728,27.881-117.516,65.934h-16.437c-38.936,0-70.497,31.566-70.497,70.497v267.9
		c0,38.94,31.566,70.494,70.497,70.494h267.899c38.943,0,70.498-31.562,70.498-70.494V136.431z M237.415,31.4
		c38,0,71.25,14.685,83.425,34.526H153.988C166.163,46.085,199.412,31.4,237.415,31.4z M410.461,404.331
		c0,21.56-17.544,39.093-39.1,39.093H103.462c-21.558,0-39.094-17.533-39.094-39.093v-267.9c0-21.558,17.536-39.095,39.094-39.095
		h267.899c21.556,0,39.1,17.537,39.1,39.095V404.331z"/>
	<path d="M336.725,184.199H138.107c-20.12,0-41.279,0.637-52.269-1.373v186.86c0,28.866,23.401,52.27,52.269,52.27h198.618
		c28.861,0,52.27-23.403,52.27-52.27v-186.86C378.001,184.836,356.842,184.199,336.725,184.199z"/>
	<path d="M129.905,127.756c10.706,0,19.388,8.682,19.388,19.388c0,10.71-8.682,19.392-19.388,19.392
		c-10.711,0-19.394-8.682-19.394-19.392C110.512,136.438,119.194,127.756,129.905,127.756z"/>
	<path d="M249.756,127.756c10.703,0,19.388,8.682,19.388,19.388c0,10.71-8.685,19.392-19.388,19.392
		c-10.708,0-19.39-8.682-19.39-19.392C230.366,136.438,239.048,127.756,249.756,127.756z"/>
	<path d="M306.152,127.756c10.708,0,19.396,8.682,19.396,19.388c0,10.71-8.688,19.392-19.396,19.392
		c-10.704,0-19.388-8.682-19.388-19.392C286.765,136.438,295.448,127.756,306.152,127.756z"/>
	<path d="M362.545,166.536c10.716,0,19.396-8.682,19.396-19.392c0-0.902-0.152-1.775-0.269-2.645
		c-1.126-8.127-7.189-14.663-15.132-16.322c-1.29-0.264-2.629-0.415-3.995-0.415c-10.704,0-19.38,8.682-19.38,19.39
		C343.165,157.854,351.841,166.536,362.545,166.536z"/>
</g>
</svg>
